{
  "controls": {
    "#strict_file_permissions": {
      "id": "#strict_file_permissions",
      "run_id": "7ac1245a50a547b0984c54f396a2f62f",
      "name": "strict file permissions",
      "description": "",
      "custom": {}
    },
    "#basic_input_validation": {
      "id": "#basic_input_validation",
      "run_id": "7ac1245a50a547b0984c54f396a2f62f",
      "name": "basic input validation",
      "description": "",
      "custom": {}
    },
    "#nonprivileged_port": {
      "id": "#nonprivileged_port",
      "run_id": "7ac1245a50a547b0984c54f396a2f62f",
      "name": "non-privileged port",
      "description": "",
      "custom": {}
    }
  }
}