{
  "threats": {
    "#arbitrary_file_writes": {
      "id": "#arbitrary_file_writes",
      "run_id": "7ac1245a50a547b0984c54f396a2f62f",
      "name": "arbitrary file writes",
      "description": "",
      "custom": {}
    },
    "#unauthorised_access": {
      "id": "#unauthorised_access",
      "run_id": "7ac1245a50a547b0984c54f396a2f62f",
      "name": "unauthorised access",
      "description": "",
      "custom": {}
    },
    "#arbitrary_file_reads": {
      "id": "#arbitrary_file_reads",
      "run_id": "7ac1245a50a547b0984c54f396a2f62f",
      "name": "arbitrary file reads",
      "description": "",
      "custom": {}
    },
    "#xss_injection": {
      "id": "#xss_injection",
      "run_id": "7ac1245a50a547b0984c54f396a2f62f",
      "name": "XSS injection",
      "description": "",
      "custom": {}
    },
    "#content_injection": {
      "id": "#content_injection",
      "run_id": "7ac1245a50a547b0984c54f396a2f62f",
      "name": "content injection",
      "description": "",
      "custom": {}
    },
    "#resource_access_abuse": {
      "id": "#resource_access_abuse",
      "run_id": "7ac1245a50a547b0984c54f396a2f62f",
      "name": "resource access abuse",
      "description": "",
      "custom": {}
    },
    "#privilege_escalation": {
      "id": "#privilege_escalation",
      "run_id": "7ac1245a50a547b0984c54f396a2f62f",
      "name": "privilege escalation",
      "description": "",
      "custom": {}
    },
    "#cwe_319_cleartext_transmission": {
      "id": "#cwe_319_cleartext_transmission",
      "run_id": "7ac1245a50a547b0984c54f396a2f62f",
      "name": "@cwe_319_cleartext_transmission",
      "description": "",
      "custom": {}
    },
    "#sql": {
      "id": "#sql",
      "run_id": "7ac1245a50a547b0984c54f396a2f62f",
      "name": "SQL Injection",
      "description": "An attacker can inject malicious SQL statements, typically through web form components, and make changes or retrieve information from the backend database.",
      "custom": {}
    },
    "#mitm": {
      "id": "#mitm",
      "run_id": "7ac1245a50a547b0984c54f396a2f62f",
      "name": "Man in the Middle",
      "description": "An attacker can intercept unsecured traffic and can obtain sensitive information or tamper with the connection.",
      "custom": {}
    },
    "#token_theft": {
      "id": "#token_theft",
      "run_id": "7ac1245a50a547b0984c54f396a2f62f",
      "name": "Authentication token theft",
      "description": "An attacker can steal or otherwise obtain a sensitive authentication token and can therefore spoof the legitimate user",
      "custom": {}
    },
    "#creation_of_fake_pets": {
      "id": "#creation_of_fake_pets",
      "run_id": "7ac1245a50a547b0984c54f396a2f62f",
      "name": "Creation of fake pets",
      "description": "",
      "custom": {}
    }
  }
}